Snow cover impacts on watershed discharge
…
## 
## 1984 1985 1986 1987 1988 1989 1990 1991 1992 1993 1994 1995 1996 1997 1998 
##   14   34   44   66   44   48   26   34   50   56   60   60   64   60   60 
## 1999 2000 2001 2002 2003 2004 2005 2006 2007 2008 2009 2010 2011 2012 2013 
##   78  106  120  134  116  128  132  132  130  114  112  128  130   90  108 
## 2014 2015 2016 2017 2018 2019 
##  138  116  130  114  130  102

Filtering and summarizing

Now that we have our matched datasets we want to do a couple filtering operations. First, we want to make sure that we are only analyzing complete water years from the Q dataset. Second, we want to make sure we are only summarizing the snow data over months where snow cover is possible, which I would guess is between october and may. Once we have these filtering operations done, we want to summarize each dataset by water year so we can eventually join them and see if snow cover predicts Q.

Snow water year summary statistics

## # A tibble: 36 x 4
##    wtr_yr mean_ndsi max_ndsi median_ndsi
##     <dbl>     <dbl>    <dbl>       <dbl>
##  1   1984   0.483      0.605      0.483 
##  2   1985  -0.104      0.539     -0.123 
##  3   1986  -0.130      0.436     -0.203 
##  4   1987   0.0614     0.655      0.247 
##  5   1988  -0.309      0.616     -0.425 
##  6   1989  -0.398     -0.208     -0.404 
##  7   1990  -0.269      0.524     -0.428 
##  8   1991   0.0130     0.632     -0.0550
##  9   1992  -0.0982     0.592     -0.272 
## 10   1993  -0.00697    0.626     -0.0943
## #  with 26 more rows
…
